{
  "text": {
    "units": [
      "zero",
      "one",
      "two",
      "three",
      "four",
      "five",
      "six",
      "seven",
      "eight",
      "nine"
    ],
    "to20": [
      "eleven",
      "twelve",
      "thirteen",
      "fourteen",
      "fifteen",
      "sixteen",
      "seventeen",
      "eighteen",
      "nineteen"
    ],
    "decade": [
      "ten",
      "twenty",
      "thirty",
      "forty",
      "fifty",
      "sixty",
      "seventy",
      "eighty",
      "ninety"
    ]
  },
  "exponent": [
    "...llion",
    "thousand",
    "million",
    "billion",
    "trillion",
    "quadrillion",
    "quintillion"
  ]
}